[gd_scene load_steps=3 format=2]

[ext_resource path="res://assets/images/Credits.png" type="Texture" id=1]
[ext_resource path="res://scripts/Controls.gd" type="Script" id=2]

[node name="Area2D" type="Area2D" index="0"]

input_pickable = true
gravity_vec = Vector2( 0, 1 )
gravity = 98.0
linear_damp = 0.1
angular_damp = 1.0
audio_bus_override = false
audio_bus_name = "Master"
_sections_unfolded = [ "Transform" ]

[node name="Credits" type="Sprite" parent="." index="0"]

position = Vector2( 480, 270 )
texture = ExtResource( 1 )
script = ExtResource( 2 )
_sections_unfolded = [ "Transform" ]


