[gd_scene load_steps=3 format=2]

[ext_resource path="res://scripts/DeathZone.gd" type="Script" id=1]

[sub_resource type="RectangleShape2D" id=1]

custom_solver_bias = 0.0
extents = Vector2( 221.95, 32 )

[node name="DeathZone" type="Area2D"]

position = Vector2( 352, 736 )
input_pickable = true
gravity_vec = Vector2( 0, 1 )
gravity = 98.0
linear_damp = 0.1
angular_damp = 1.0
collision_layer = 4096
audio_bus_override = false
audio_bus_name = "Master"
script = ExtResource( 1 )
_sections_unfolded = [ "Collision" ]
__meta__ = {
"_edit_group_": true
}

[node name="CollisionShape2D" type="CollisionShape2D" parent="." index="0"]

shape = SubResource( 1 )
_sections_unfolded = [ "Transform" ]

[connection signal="body_entered" from="." to="." method="_on_Area2D_body_entered"]


