[gd_scene load_steps=3 format=2]

[ext_resource path="res://scripts/Enemy.gd" type="Script" id=1]

[sub_resource type="CapsuleShape2D" id=1]

custom_solver_bias = 0.0
radius = 30.0
height = 64.0

[node name="Enemy" type="KinematicBody2D"]

input_pickable = false
collision_layer = 2048
collision_mask = 1027
collision/safe_margin = 0.08
script = ExtResource( 1 )
_sections_unfolded = [ "Collision" ]
__meta__ = {
"_edit_group_": true
}
gravity = 34.3
fallFactor = 4
walkSpeed = 200
runSpeed = 600
jumpSpeed = 940
viewingDistance = 600

[node name="Polygon2D" type="Polygon2D" parent="." index="0"]

polygon = PoolVector2Array( -32, -64, 32, -64, 32, 64, -32, 64 )
uv = PoolVector2Array(  )
color = Color( 1, 0, 0, 1 )
vertex_colors = PoolColorArray(  )
offset = Vector2( 0, 0 )
antialiased = false
texture = null
texture_offset = Vector2( 0, 0 )
texture_scale = Vector2( 1, 1 )
texture_rotation_degrees = 0.0
invert_enable = false
invert_border = 100.0

[node name="CollisionShape2D" type="CollisionShape2D" parent="." index="1"]

shape = SubResource( 1 )


